Chapter 4 Identification data | R for Mass Spectrometry
…
4.3 Filtering dataCopy link

Often, the PSM data is filtered to only retain reliable matches. The
MSnID package can be used to set thresholds to attain user-defined
PSM, peptide or protein-level FDRs. Here, we will simply filter out
wrong identification manually.

Here, the filter() from the dplyr package comes very handy. We
will thus start by converting the DataFrame to a tibble.

library("dplyr")
id_tbl <- tidyr::as_tibble(id)
id_tbl

## # A tibble: 5,802 × 35
##    sequence    spectrumID chargeState  rank passThreshold experimentalMassToCh…¹
##    <chr>       <chr>            <int> <int> <lgl>                          <dbl>
##  1 RQCRTDFLNY… controlle…           3     1 TRUE                            548.
##  2 ESVALADQVT… controlle…           2     1 TRUE                           1288.
##  3 KELLCLAMQI… controlle…           2     1 TRUE                            744.
##  4 QRMARTSDKQ… controlle…           3     1 TRUE                            913.
##  5 KDEGSTEPLK… controlle…           3     1 TRUE                            927.
##  6 DGGPAIYGHE… controlle…           3     1 TRUE                            969.
##  7 QRMARTSDKQ… controlle…           2     1 TRUE                           1369.
##  8 CIDRARHVEV… controlle…           3     1 TRUE                           1285.
##  9 CIDRARHVEV… controlle…           3     1 TRUE                           1285.
## 10 VGRCRPIINY… controlle…           2     1 TRUE                           1102.
## # ℹ 5,792 more rows
## # ℹ abbreviated name: ¹​experimentalMassToCharge
## # ℹ 29 more variables: calculatedMassToCharge <dbl>, peptideRef <chr>,
## #   modNum <int>, isDecoy <lgl>, post <chr>, pre <chr>, start <int>, end <int>,
## #   DatabaseAccess <chr>, DBseqLength <int>, DatabaseSeq <chr>,
## #   DatabaseDescription <chr>, scan.number.s. <dbl>, acquisitionNum <dbl>,
## #   spectrumFile <chr>, idFile <chr>, MS.GF.RawScore <dbl>, …

► Question

Remove decoy hits

► Solution

id_tbl <- id_tbl |>
    filter(!isDecoy)
id_tbl

## # A tibble: 2,906 × 35
##    sequence    spectrumID chargeState  rank passThreshold experimentalMassToCh…¹
##    <chr>       <chr>            <int> <int> <lgl>                          <dbl>
##  1 RQCRTDFLNY… controlle…           3     1 TRUE                            548.
##  2 ESVALADQVT… controlle…           2     1 TRUE                           1288.
##  3 QRMARTSDKQ… controlle…           3     1 TRUE                            913.
##  4 DGGPAIYGHE… controlle…           3     1 TRUE                            969.
##  5 QRMARTSDKQ… controlle…           2     1 TRUE                           1369.
##  6 CIDRARHVEV… controlle…           3     1 TRUE                           1285.
##  7 CIDRARHVEV… controlle…           3     1 TRUE                           1285.
##  8 VGRCRPIINY… controlle…           2     1 TRUE                           1102.
##  9 QRLDEHCVGV… controlle…           3     1 TRUE                            713.
## 10 VDYQGKKVVI… controlle…           4     1 TRUE                            870.
## # ℹ 2,896 more rows
## # ℹ abbreviated name: ¹​experimentalMassToCharge
## # ℹ 29 more variables: calculatedMassToCharge <dbl>, peptideRef <chr>,
## #   modNum <int>, isDecoy <lgl>, post <chr>, pre <chr>, start <int>, end <int>,
## #   DatabaseAccess <chr>, DBseqLength <int>, DatabaseSeq <chr>,
## #   DatabaseDescription <chr>, scan.number.s. <dbl>, acquisitionNum <dbl>,
## #   spectrumFile <chr>, idFile <chr>, MS.GF.RawScore <dbl>, …

► Question

Keep first rank matches

► Solution

id_tbl <- id_tbl |>
    filter(rank == 1)
id_tbl

## # A tibble: 2,751 × 35
##    sequence    spectrumID chargeState  rank passThreshold experimentalMassToCh…¹
##    <chr>       <chr>            <int> <int> <lgl>                          <dbl>
##  1 RQCRTDFLNY… controlle…           3     1 TRUE                            548.
##  2 ESVALADQVT… controlle…           2     1 TRUE                           1288.
##  3 QRMARTSDKQ… controlle…           3     1 TRUE                            913.
##  4 DGGPAIYGHE… controlle…           3     1 TRUE                            969.
##  5 QRMARTSDKQ… controlle…           2     1 TRUE                           1369.
##  6 CIDRARHVEV… controlle…           3     1 TRUE                           1285.
##  7 CIDRARHVEV… controlle…           3     1 TRUE                           1285.
##  8 VGRCRPIINY… controlle…           2     1 TRUE                           1102.
##  9 QRLDEHCVGV… controlle…           3     1 TRUE                            713.
## 10 VDYQGKKVVI… controlle…           4     1 TRUE                            870.
## # ℹ 2,741 more rows
## # ℹ abbreviated name: ¹​experimentalMassToCharge
## # ℹ 29 more variables: calculatedMassToCharge <dbl>, peptideRef <chr>,
## #   modNum <int>, isDecoy <lgl>, post <chr>, pre <chr>, start <int>, end <int>,
## #   DatabaseAccess <chr>, DBseqLength <int>, DatabaseSeq <chr>,
## #   DatabaseDescription <chr>, scan.number.s. <dbl>, acquisitionNum <dbl>,
## #   spectrumFile <chr>, idFile <chr>, MS.GF.RawScore <dbl>, …
…
► Solution

mltm <-
    id_tbl |>
    group_by(spectrumID) |>
    mutate(nProts = length(unique(DatabaseAccess))) |>
    filter(nProts > 1) |>
    select(spectrumID, nProts)
mltm

## # A tibble: 85 × 2
## # Groups:   spectrumID [39]
##    spectrumID                                    nProts
##    <chr>                                          <int>
##  1 controllerType=0 controllerNumber=1 scan=1073      2
##  2 controllerType=0 controllerNumber=1 scan=1073      2
##  3 controllerType=0 controllerNumber=1 scan=6578      2
##  4 controllerType=0 controllerNumber=1 scan=6578      2
##  5 controllerType=0 controllerNumber=1 scan=5617      2
##  6 controllerType=0 controllerNumber=1 scan=5617      2
##  7 controllerType=0 controllerNumber=1 scan=3926      2
##  8 controllerType=0 controllerNumber=1 scan=3926      2
##  9 controllerType=0 controllerNumber=1 scan=4784      2
## 10 controllerType=0 controllerNumber=1 scan=4784      2
## # ℹ 75 more rows

id_tbl <-
    id_tbl |>
    filter(!spectrumID %in% mltm$spectrumID)
id_tbl

## # A tibble: 2,666 × 35
##    sequence    spectrumID chargeState  rank passThreshold experimentalMassToCh…¹
##    <chr>       <chr>            <int> <int> <lgl>                          <dbl>
##  1 RQCRTDFLNY… controlle…           3     1 TRUE                            548.
##  2 ESVALADQVT… controlle…           2     1 TRUE                           1288.
##  3 QRMARTSDKQ… controlle…           3     1 TRUE                            913.
##  4 DGGPAIYGHE… controlle…           3     1 TRUE                            969.
##  5 QRMARTSDKQ… controlle…           2     1 TRUE                           1369.
##  6 CIDRARHVEV… controlle…           3     1 TRUE                           1285.
##  7 CIDRARHVEV… controlle…           3     1 TRUE                           1285.
##  8 VGRCRPIINY… controlle…           2     1 TRUE                           1102.
##  9 QRLDEHCVGV… controlle…           3     1 TRUE                            713.
## 10 VDYQGKKVVI… controlle…           4     1 TRUE                            870.
## # ℹ 2,656 more rows
## # ℹ abbreviated name: ¹​experimentalMassToCharge
## # ℹ 29 more variables: calculatedMassToCharge <dbl>, peptideRef <chr>,
## #   modNum <int>, isDecoy <lgl>, post <chr>, pre <chr>, start <int>, end <int>,
## #   DatabaseAccess <chr>, DBseqLength <int>, DatabaseSeq <chr>,
## #   DatabaseDescription <chr>, scan.number.s. <dbl>, acquisitionNum <dbl>,
## #   spectrumFile <chr>, idFile <chr>, MS.GF.RawScore <dbl>, …
…
